{
  "pluginsConfig": {
    "@nx/js": {
      "analyzeSourceFiles": true
    }
  },
  "extends": "nx/presets/npm.json",
  "$schema": "./node_modules/nx/schemas/nx-schema.json",
  "nxCloudAccessToken": "OTE2YTNkMjYtMWU0OS00ZDMxLWFkMTYtYzcwNmJmNjExYTJmfHJlYWQtd3JpdGU=",
  "workspaceLayout": {
    "appsDir": "apps",
    "libsDir": "packages"
  },
  "plugins": [
    {
      "plugin": "@nx/expo/plugin",
      "options": {
        "startTargetName": "start",
        "serveTargetName": "serve",
        "runIosTargetName": "run-ios",
        "runAndroidTargetName": "run-android",
        "exportTargetName": "export",
        "prebuildTargetName": "prebuild",
        "installTargetName": "install",
        "buildTargetName": "build",
        "submitTargetName": "submit"
      }
    },
    {
      "plugin": "@nx/eslint/plugin",
      "options": {
        "targetName": "lint"
      }
    },
    {
      "plugin": "@nx/jest/plugin",
      "options": {
        "targetName": "test"
      }
    }
  ],
  "generators": {
    "@nx/react": {
      "library": {
        "unitTestRunner": "none"
      }
    }
  },
  "targetDefaults": {
    "@nx/js:tsc": {
      "cache": true,
      "dependsOn": ["^build"],
      "inputs": ["default", "^default"]
    }
  }
}
