{
  "name": "rallx-mobile-material-you",
  "$schema": "../../node_modules/nx/schemas/project-schema.json",
  "sourceRoot": "packages/rallx-mobile-material-you/src",
  "projectType": "library",
  "tags": ["UI library"],
  "// targets": "to see all targets run: nx show project rallx-mobile-material-you --web",
  "targets": {}
}
