{
  "name": "rallx-purple-theme",
  "$schema": "../../node_modules/nx/schemas/project-schema.json",
  "sourceRoot": "configs/rallx-purple-theme/src",
  "projectType": "library",
  "tags": [],
  "// targets": "to see all targets run: nx show project rallx-purple-theme --web",
  "targets": {}
}
